\relax 
\providecommand\hyper@newdestlabel[2]{}
\providecommand\HyperFirstAtBeginDocument{\AtBeginDocument}
\HyperFirstAtBeginDocument{\ifx\hyper@anchor\@undefined
\global\let\oldcontentsline\contentsline
\gdef\contentsline#1#2#3#4{\oldcontentsline{#1}{#2}{#3}}
\global\let\oldnewlabel\newlabel
\gdef\newlabel#1#2{\newlabelxx{#1}#2}
\gdef\newlabelxx#1#2#3#4#5#6{\oldnewlabel{#1}{{#2}{#3}}}
\AtEndDocument{\ifx\hyper@anchor\@undefined
\let\contentsline\oldcontentsline
\let\newlabel\oldnewlabel
\fi}
\fi}
\global\let\hyper@last\relax 
\gdef\HyperFirstAtBeginDocument#1{#1}
\providecommand*\HyPL@Entry[1]{}
\HyPL@Entry{0<</S/D>>}
\@writefile{toc}{\contentsline {section}{Debugging on IDE}{1}{section*.2}}
\newlabel{debugging-on-ide}{{}{1}{Debugging on IDE}{section*.2}{}}
\@writefile{toc}{\contentsline {subsection}{Prerequisites}{1}{section*.3}}
\newlabel{prerequisites}{{}{1}{Prerequisites}{section*.3}{}}
\@writefile{toc}{\contentsline {subsection}{Table of Contents}{1}{section*.4}}
\newlabel{table-of-contents}{{}{1}{Table of Contents}{section*.4}{}}
\@writefile{toc}{\contentsline {subsection}{Truffle Installation}{2}{section*.5}}
\newlabel{truffle-installation}{{}{2}{Truffle Installation}{section*.5}{}}
\@writefile{toc}{\contentsline {subsection}{Creating a MetaCoin project}{2}{section*.6}}
\newlabel{creating-a-metacoin-project}{{}{2}{Creating a MetaCoin project}{section*.6}{}}
\@writefile{toc}{\contentsline {subsection}{Creating a package.json file}{2}{section*.7}}
\newlabel{creating-a-package.json-file}{{}{2}{Creating a package.json file}{section*.7}{}}
\@writefile{toc}{\contentsline {subsubsection}{Adding Test Script}{2}{section*.8}}
\newlabel{adding-test-script}{{}{2}{Adding Test Script}{section*.8}{}}
\@writefile{toc}{\contentsline {subsection}{Truffle Package Installation}{3}{section*.9}}
\newlabel{truffle-package-installation}{{}{3}{Truffle Package Installation}{section*.9}{}}
\@writefile{toc}{\contentsline {subsection}{The Whole Shell Script}{3}{section*.10}}
\newlabel{the-whole-shell-script}{{}{3}{The Whole Shell Script}{section*.10}{}}
\@writefile{toc}{\contentsline {subsection}{On IntelliJ(or WebStorm) IDE Ultimate Edition}{3}{section*.11}}
\newlabel{on-intellijor-webstorm-ide-ultimate-edition}{{}{3}{On IntelliJ(or WebStorm) IDE Ultimate Edition}{section*.11}{}}
\@writefile{toc}{\contentsline {subsection}{Using OpenZeppelin}{5}{section*.12}}
\newlabel{using-openzeppelin}{{}{5}{Using OpenZeppelin}{section*.12}{}}
\@writefile{toc}{\contentsline {subsection}{Using MultiSigWallet}{7}{section*.13}}
\newlabel{using-multisigwallet}{{}{7}{Using MultiSigWallet}{section*.13}{}}
\@writefile{toc}{\contentsline {subsection}{On Visual Studio Code}{7}{section*.14}}
\newlabel{on-visual-studio-code}{{}{7}{On Visual Studio Code}{section*.14}{}}
