\relax 
\providecommand\hyper@newdestlabel[2]{}
\providecommand\HyperFirstAtBeginDocument{\AtBeginDocument}
\HyperFirstAtBeginDocument{\ifx\hyper@anchor\@undefined
\global\let\oldcontentsline\contentsline
\gdef\contentsline#1#2#3#4{\oldcontentsline{#1}{#2}{#3}}
\global\let\oldnewlabel\newlabel
\gdef\newlabel#1#2{\newlabelxx{#1}#2}
\gdef\newlabelxx#1#2#3#4#5#6{\oldnewlabel{#1}{{#2}{#3}}}
\AtEndDocument{\ifx\hyper@anchor\@undefined
\let\contentsline\oldcontentsline
\let\newlabel\oldnewlabel
\fi}
\fi}
\global\let\hyper@last\relax 
\gdef\HyperFirstAtBeginDocument#1{#1}
\providecommand\HyField@AuxAddToFields[1]{}
\providecommand\HyField@AuxAddToCoFields[2]{}
\@writefile{toc}{\contentsline {section}{Choosing an Ethereum client}{1}{section*.1}}
\newlabel{choosing-an-ethereum-client}{{}{1}{Choosing an Ethereum client}{section*.1}{}}
\@writefile{toc}{\contentsline {subsection}{When developing}{1}{section*.2}}
\newlabel{when-developing}{{}{1}{When developing}{section*.2}{}}
\@writefile{toc}{\contentsline {subsubsection}{Ganache}{1}{section*.3}}
\newlabel{ganache}{{}{1}{Ganache}{section*.3}{}}
\@writefile{toc}{\contentsline {subsubsection}{Truffle Develop}{1}{section*.4}}
\newlabel{truffle-develop}{{}{1}{Truffle Develop}{section*.4}{}}
\@writefile{toc}{\contentsline {subsubsection}{Ganache CLI}{2}{section*.5}}
\newlabel{ganache-cli}{{}{2}{Ganache CLI}{section*.5}{}}
\@writefile{toc}{\contentsline {subsection}{Deploying to live networks}{2}{section*.6}}
\newlabel{deploying-to-live-networks}{{}{2}{Deploying to live networks}{section*.6}{}}
\@writefile{toc}{\contentsline {subsection}{Deploying to private networks}{3}{section*.7}}
\newlabel{deploying-to-private-networks}{{}{3}{Deploying to private networks}{section*.7}{}}
