\BOOKMARK [1][-]{section*.1}{\376\377\000C\000h\000o\000o\000s\000i\000n\000g\000\040\000a\000n\000\040\000E\000t\000h\000e\000r\000e\000u\000m\000\040\000c\000l\000i\000e\000n\000t}{}% 1
\BOOKMARK [2][-]{section*.2}{\376\377\000W\000h\000e\000n\000\040\000d\000e\000v\000e\000l\000o\000p\000i\000n\000g}{section*.1}% 2
\BOOKMARK [3][-]{section*.3}{\376\377\000G\000a\000n\000a\000c\000h\000e}{section*.2}% 3
\BOOKMARK [3][-]{section*.4}{\376\377\000T\000r\000u\000f\000f\000l\000e\000\040\000D\000e\000v\000e\000l\000o\000p}{section*.2}% 4
\BOOKMARK [3][-]{section*.5}{\376\377\000G\000a\000n\000a\000c\000h\000e\000\040\000C\000L\000I}{section*.2}% 5
\BOOKMARK [2][-]{section*.6}{\376\377\000D\000e\000p\000l\000o\000y\000i\000n\000g\000\040\000t\000o\000\040\000l\000i\000v\000e\000\040\000n\000e\000t\000w\000o\000r\000k\000s}{section*.1}% 6
\BOOKMARK [2][-]{section*.7}{\376\377\000D\000e\000p\000l\000o\000y\000i\000n\000g\000\040\000t\000o\000\040\000p\000r\000i\000v\000a\000t\000e\000\040\000n\000e\000t\000w\000o\000r\000k\000s}{section*.1}% 7
