\relax 
\providecommand\hyper@newdestlabel[2]{}
\providecommand\HyperFirstAtBeginDocument{\AtBeginDocument}
\HyperFirstAtBeginDocument{\ifx\hyper@anchor\@undefined
\global\let\oldcontentsline\contentsline
\gdef\contentsline#1#2#3#4{\oldcontentsline{#1}{#2}{#3}}
\global\let\oldnewlabel\newlabel
\gdef\newlabel#1#2{\newlabelxx{#1}#2}
\gdef\newlabelxx#1#2#3#4#5#6{\oldnewlabel{#1}{{#2}{#3}}}
\AtEndDocument{\ifx\hyper@anchor\@undefined
\let\contentsline\oldcontentsline
\let\newlabel\oldnewlabel
\fi}
\fi}
\global\let\hyper@last\relax 
\gdef\HyperFirstAtBeginDocument#1{#1}
\providecommand\HyField@AuxAddToFields[1]{}
\providecommand\HyField@AuxAddToCoFields[2]{}
\@writefile{toc}{\contentsline {section}{Using Truffle Develop and the Console}{1}{section*.1}}
\newlabel{using-truffle-develop-and-the-console}{{}{1}{Using Truffle Develop and the Console}{section*.1}{}}
\@writefile{toc}{\contentsline {subsection}{Why two different consoles?}{1}{section*.2}}
\newlabel{why-two-different-consoles}{{}{1}{Why two different consoles?}{section*.2}{}}
\@writefile{toc}{\contentsline {subsection}{Commands}{1}{section*.3}}
\newlabel{commands}{{}{1}{Commands}{section*.3}{}}
\@writefile{toc}{\contentsline {subsubsection}{Console}{2}{section*.4}}
\newlabel{console}{{}{2}{Console}{section*.4}{}}
\@writefile{toc}{\contentsline {subsubsection}{Truffle Develop}{2}{section*.5}}
\newlabel{truffle-develop}{{}{2}{Truffle Develop}{section*.5}{}}
\@writefile{toc}{\contentsline {subsection}{Features}{3}{section*.6}}
\newlabel{features}{{}{3}{Features}{section*.6}{}}
\@writefile{toc}{\contentsline {subsubsection}{Commands available}{3}{section*.7}}
\newlabel{commands-available}{{}{3}{Commands available}{section*.7}{}}
